LSD/simulation/qsim/Maquina_Bebida.msim.vcd
$comment
	File created using the following command:
		vcd file Maquina_Bebida.msim.vcd -direction
$end
$date
	Sat Jun 19 23:10:31 2021
$end
$version
	ModelSim Version 10.5b
$end
$timescale
	1ps
$end

$scope module timer_vhd_vec_tst $end
$var wire 1 ! clk $end
$var wire 1 " NewTime $end
$var wire 1 # reset $end
$var wire 1 $ Timeexp $end
$var wire 1 % TimerEnable $end
$var wire 1 & TimeVal [3] $end
$var wire 1 ' TimeVal [2] $end
$var wire 1 ( TimeVal [1] $end
$var wire 1 ) TimeVal [0] $end

$scope module i1 $end
$var wire 1 * gnd $end
$var wire 1 + vcc $end
$var wire 1 , unknown $end
$var wire 1 - devoe $end
$var wire 1 . devclrn $end
$var wire 1 / devpor $end
$var wire 1 0 ww_devoe $end
$var wire 1 1 ww_devclrn $end
$var wire 1 2 ww_devpor $end
$var wire 1 3 ww_NewTime $end
$var wire 1 4 ww_reset $end
$var wire 1 5 ww_TimerEnable $end
$var wire 1 6 ww_clk $end
$var wire 1 7 ww_TimeVal [3] $end
$var wire 1 8 ww_TimeVal [2] $end
$var wire 1 9 ww_TimeVal [1] $end
$var wire 1 : ww_TimeVal [0] $end
$var wire 1 ; ww_Timeexp $end
$var wire 1 < \TimeVal[0]~input_o\ $end
$var wire 1 = \TimeVal[1]~input_o\ $end
$var wire 1 > \TimeVal[2]~input_o\ $end
$var wire 1 ? \TimeVal[3]~input_o\ $end
$var wire 1 @ \clk~input_o\ $end
$var wire 1 A \count[0]~32_combout\ $end
$var wire 1 B \~GND~combout\ $end
$var wire 1 C \NewTime~input_o\ $end
$var wire 1 D \reset~input_o\ $end
$var wire 1 E \count[1]~34_combout\ $end
$var wire 1 F \TimerEnable~input_o\ $end
$var wire 1 G \count[1]~35_combout\ $end
$var wire 1 H \count[0]~33\ $end
$var wire 1 I \count[1]~36_combout\ $end
$var wire 1 J \count[1]~37\ $end
$var wire 1 K \count[2]~38_combout\ $end
$var wire 1 L \reset~_wirecell_combout\ $end
$var wire 1 M \count[2]~39\ $end
$var wire 1 N \count[3]~40_combout\ $end
$var wire 1 O \Equal0~0_combout\ $end
$var wire 1 P \count[3]~41\ $end
$var wire 1 Q \count[4]~42_combout\ $end
$var wire 1 R \count[4]~43\ $end
$var wire 1 S \count[5]~44_combout\ $end
$var wire 1 T \count[5]~45\ $end
$var wire 1 U \count[6]~46_combout\ $end
$var wire 1 V \count[6]~47\ $end
$var wire 1 W \count[7]~48_combout\ $end
$var wire 1 X \Equal0~1_combout\ $end
$var wire 1 Y \count[7]~49\ $end
$var wire 1 Z \count[8]~50_combout\ $end
$var wire 1 [ \count[8]~51\ $end
$var wire 1 \ \count[9]~52_combout\ $end
$var wire 1 ] \count[9]~53\ $end
$var wire 1 ^ \count[10]~54_combout\ $end
$var wire 1 _ \count[10]~55\ $end
$var wire 1 ` \count[11]~56_combout\ $end
$var wire 1 a \Equal0~2_combout\ $end
$var wire 1 b \count[11]~57\ $end
$var wire 1 c \count[12]~58_combout\ $end
$var wire 1 d \count[12]~59\ $end
$var wire 1 e \count[13]~60_combout\ $end
$var wire 1 f \count[13]~61\ $end
$var wire 1 g \count[14]~62_combout\ $end
$var wire 1 h \count[14]~63\ $end
$var wire 1 i \count[15]~64_combout\ $end
$var wire 1 j \Equal0~3_combout\ $end
$var wire 1 k \Equal0~4_combout\ $end
$var wire 1 l \count[15]~65\ $end
$var wire 1 m \count[16]~66_combout\ $end
$var wire 1 n \count[16]~67\ $end
$var wire 1 o \count[17]~68_combout\ $end
$var wire 1 p \count[17]~69\ $end
$var wire 1 q \count[18]~70_combout\ $end
$var wire 1 r \count[18]~71\ $end
$var wire 1 s \count[19]~72_combout\ $end
$var wire 1 t \Equal0~5_combout\ $end
$var wire 1 u \count[19]~73\ $end
$var wire 1 v \count[20]~74_combout\ $end
$var wire 1 w \count[20]~75\ $end
$var wire 1 x \count[21]~76_combout\ $end
$var wire 1 y \Equal0~6_combout\ $end
$var wire 1 z \count[21]~77\ $end
$var wire 1 { \count[22]~78_combout\ $end
$var wire 1 | \count[22]~79\ $end
$var wire 1 } \count[23]~80_combout\ $end
$var wire 1 ~ \Equal0~7_combout\ $end
$var wire 1 !! \count[23]~81\ $end
$var wire 1 "! \count[24]~82_combout\ $end
$var wire 1 #! \count[24]~83\ $end
$var wire 1 $! \count[25]~84_combout\ $end
$var wire 1 %! \count[25]~85\ $end
$var wire 1 &! \count[26]~86_combout\ $end
$var wire 1 '! \count[26]~87\ $end
$var wire 1 (! \count[27]~88_combout\ $end
$var wire 1 )! \Equal0~8_combout\ $end
$var wire 1 *! \count[27]~89\ $end
$var wire 1 +! \count[28]~90_combout\ $end
$var wire 1 ,! \count[28]~91\ $end
$var wire 1 -! \count[29]~92_combout\ $end
$var wire 1 .! \count[29]~93\ $end
$var wire 1 /! \count[30]~94_combout\ $end
$var wire 1 0! \count[30]~95\ $end
$var wire 1 1! \count[31]~96_combout\ $end
$var wire 1 2! \Equal0~9_combout\ $end
$var wire 1 3! \Equal0~10_combout\ $end
$var wire 1 4! count [31] $end
$var wire 1 5! count [30] $end
$var wire 1 6! count [29] $end
$var wire 1 7! count [28] $end
$var wire 1 8! count [27] $end
$var wire 1 9! count [26] $end
$var wire 1 :! count [25] $end
$var wire 1 ;! count [24] $end
$var wire 1 <! count [23] $end
$var wire 1 =! count [22] $end
$var wire 1 >! count [21] $end
$var wire 1 ?! count [20] $end
$var wire 1 @! count [19] $end
$var wire 1 A! count [18] $end
$var wire 1 B! count [17] $end
$var wire 1 C! count [16] $end
$var wire 1 D! count [15] $end
$var wire 1 E! count [14] $end
$var wire 1 F! count [13] $end
$var wire 1 G! count [12] $end
$var wire 1 H! count [11] $end
$var wire 1 I! count [10] $end
$var wire 1 J! count [9] $end
$var wire 1 K! count [8] $end
$var wire 1 L! count [7] $end
$var wire 1 M! count [6] $end
$var wire 1 N! count [5] $end
$var wire 1 O! count [4] $end
$var wire 1 P! count [3] $end
$var wire 1 Q! count [2] $end
$var wire 1 R! count [1] $end
$var wire 1 S! count [0] $end
$upscope $end
$upscope $end
$enddefinitions $end
#0
$dumpvars
0!
0"
0#
0$
1%
0*
1+
x,
1-
1.
1/
10
11
12
03
04
15
06
0;
0<
1=
0>
0?
0@
1A
0B
0C
0D
0E
1F
1G
0H
1I
1J
1K
1L
0M
1N
0O
1P
1Q
0R
1S
1T
1U
0V
1W
1X
1Y
1Z
0[
1\
1]
1^
0_
1`
1a
1b
1c
0d
1e
1f
1g
0h
1i
1j
0k
1l
1m
0n
1o
1p
1q
0r
1s
1t
1u
1v
0w
1x
1y
1z
1{
0|
1}
1~
1!!
1"!
0#!
1$!
1%!
1&!
0'!
1(!
1)!
1*!
1+!
0,!
1-!
1.!
1/!
00!
11!
12!
03!
0&
0'
1(
0)
07
08
19
0:
04!
05!
06!
07!
08!
09!
0:!
0;!
0<!
0=!
0>!
0?!
0@!
0A!
0B!
0C!
0D!
0E!
0F!
0G!
0H!
0I!
0J!
0K!
0L!
0M!
0N!
0O!
0P!
0Q!
0R!
0S!
$end
#5000
1!
16
1@
1S!
1R!
1Q!
1P!
1O!
1N!
1M!
1L!
1K!
1J!
1I!
1H!
1G!
1F!
1E!
1D!
1C!
1B!
1A!
1@!
1?!
1>!
1=!
1<!
1;!
1:!
19!
18!
17!
16!
15!
14!
01!
0/!
10!
0-!
0.!
0+!
1,!
02!
0(!
0*!
0&!
1'!
0$!
0%!
0"!
1#!
0)!
0}
0!!
0{
1|
0~
0x
0z
0v
1w
0y
0s
0u
0q
1r
0o
0p
0m
1n
0t
0i
0l
0g
1h
0e
0f
0c
1d
0j
0`
0b
0^
1_
0\
0]
0Z
1[
0a
0W
0Y
0U
1V
0S
0T
0Q
1R
0X
0N
0P
0K
1M
0I
0J
0A
1H
1I
1K
1N
1Q
1S
1U
1W
1Z
1\
1^
1`
1c
1e
1g
1i
1m
1o
1q
1s
1v
1x
1{
1}
1"!
1$!
1&!
1(!
1+!
1-!
1/!
11!
#10000
0!
06
0@
#15000
1!
16
1@
0S!
1A
0H
0I
#20000
0!
06
0@
#25000
1!
16
1@
1S!
0R!
1I
1J
0A
1H
0I
0J
0K
1K
#30000
0!
06
0@
#35000
1!
16
1@
0S!
1A
0H
1I
1J
0K
#40000
0!
06
0@
#45000
1!
16
1@
1S!
1R!
0Q!
1K
0M
0I
0J
0A
1H
1I
0K
1M
0N
1N
#50000
0!
06
0@
#55000
1!
16
1@
0S!
1A
0H
0I
#60000
0!
06
0@
#65000
1!
16
1@
1S!
0R!
1I
1J
0A
1H
0I
0J
1K
0M
0N
0K
1M
1N
#70000
0!
06
0@
#75000
1!
16
1@
0S!
1A
0H
1I
1J
1K
0M
0N
#80000
0!
06
0@
#85000
1!
16
1@
1S!
1R!
1Q!
0P!
1N
1P
0K
1M
0I
0J
0A
1H
1I
1K
0N
0P
0Q
1Q
#90000
0!
06
0@
#95000
1!
16
1@
0S!
1A
0H
0I
#100000
0!
1"
06
13
1C
0@
1E
#105000
1!
16
1@
0R!
0O!
0N!
0M!
0L!
0K!
0J!
0I!
0H!
0G!
0F!
0E!
0D!
0C!
0B!
0A!
0@!
0?!
0>!
0=!
0<!
0;!
0:!
09!
08!
07!
06!
05!
04!
01!
0/!
0-!
0+!
12!
0(!
0&!
0$!
0"!
1)!
0}
0{
0x
0v
1y
0s
0q
0o
0m
1t
0i
0g
0e
0c
1j
0`
0^
0\
0Z
1a
0W
0U
0S
0Q
1X
1I
1J
0K
1~
#110000
0!
06
0@
#115000
1!
16
1@
#120000
0!
06
0@
#125000
1!
16
1@
#130000
0!
06
0@
#135000
1!
16
1@
#140000
0!
0"
06
03
0C
0@
0E
#145000
1!
16
1@
1S!
1R!
0Q!
1K
0M
0I
0J
0A
1H
1I
0K
1M
1N
1P
1Q
0R
0N
0P
0Q
1R
1S
1T
1U
0V
0S
0T
0U
1V
1W
1Y
1Z
0[
0W
0Y
0Z
1[
1\
1]
1^
0_
0\
0]
0^
1_
1`
1b
1c
0d
0`
0b
0c
1d
1e
1f
1g
0h
0e
0f
0g
1h
1i
1l
1m
0n
0i
0l
0m
1n
1o
1p
1q
0r
0o
0p
0q
1r
1s
1u
1v
0w
0s
0u
0v
1w
1x
1z
1{
0|
0x
0z
0{
1|
1}
1!!
1"!
0#!
0}
0!!
0"!
1#!
1$!
1%!
1&!
0'!
0$!
0%!
0&!
1'!
1(!
1*!
1+!
0,!
0(!
0*!
0+!
1,!
1-!
1.!
1/!
00!
0-!
0.!
0/!
10!
11!
01!
#150000
0!
06
0@
#155000
1!
16
1@
0S!
1A
0H
0I
#160000
0!
06
0@
#165000
1!
16
1@
1S!
0R!
1I
1J
0A
1H
1O
1k
0I
0J
1K
0M
1N
1P
0K
1M
13!
0N
0P
1Q
0R
1S
1T
0Q
1R
1;
0S
0T
1U
0V
1$
1W
1Y
0U
1V
0W
0Y
1Z
0[
1\
1]
0Z
1[
0\
0]
1^
0_
1`
1b
0^
1_
0`
0b
1c
0d
1e
1f
0c
1d
0e
0f
1g
0h
1i
1l
0g
1h
0i
0l
1m
0n
1o
1p
0m
1n
0o
0p
1q
0r
1s
1u
0q
1r
0s
0u
1v
0w
1x
1z
0v
1w
0x
0z
1{
0|
1}
1!!
0{
1|
0}
0!!
1"!
0#!
1$!
1%!
0"!
1#!
0$!
0%!
1&!
0'!
1(!
1*!
0&!
1'!
0(!
0*!
1+!
0,!
1-!
1.!
0+!
1,!
0-!
0.!
1/!
00!
11!
0/!
10!
01!
#170000
0!
06
0@
#175000
1!
16
1@
0S!
1A
0H
0O
0k
1I
1J
1K
0M
03!
1N
1P
1Q
0R
0;
1S
1T
0$
1U
0V
1W
1Y
1Z
0[
1\
1]
1^
0_
1`
1b
1c
0d
1e
1f
1g
0h
1i
1l
1m
0n
1o
1p
1q
0r
1s
1u
1v
0w
1x
1z
1{
0|
1}
1!!
1"!
0#!
1$!
1%!
1&!
0'!
1(!
1*!
1+!
0,!
1-!
1.!
1/!
00!
11!
#180000
0!
06
0@
#185000
1!
16
1@
1S!
1R!
1Q!
1P!
1O!
1N!
1M!
1L!
1K!
1J!
1I!
1H!
1G!
1F!
1E!
1D!
1C!
1B!
1A!
1@!
1?!
1>!
1=!
1<!
1;!
1:!
19!
18!
17!
16!
15!
14!
01!
0/!
10!
0-!
0.!
0+!
1,!
02!
0(!
0*!
0&!
1'!
0$!
0%!
0"!
1#!
0)!
0}
0!!
0{
1|
0~
0x
0z
0v
1w
0y
0s
0u
0q
1r
0o
0p
0m
1n
0t
0i
0l
0g
1h
0e
0f
0c
1d
0j
0`
0b
0^
1_
0\
0]
0Z
1[
0a
0W
0Y
0U
1V
0S
0T
0Q
1R
0X
0N
0P
0K
1M
0I
0J
0A
1H
1I
1K
1N
1Q
1S
1U
1W
1Z
1\
1^
1`
1c
1e
1g
1i
1m
1o
1q
1s
1v
1x
1{
1}
1"!
1$!
1&!
1(!
1+!
1-!
1/!
11!
#190000
0!
06
0@
#195000
1!
16
1@
0S!
1A
0H
0I
#200000
0!
06
0@
#205000
1!
16
1@
1S!
0R!
1I
1J
0A
1H
0I
0J
0K
1K
#210000
0!
06
0@
#215000
1!
16
1@
0S!
1A
0H
1I
1J
0K
#220000
0!
0(
06
09
0=
0@
#225000
1!
16
1@
1S!
1R!
0Q!
1K
0M
0I
0J
0A
1H
1I
0K
1M
0N
1N
#230000
0!
06
0@
#235000
1!
16
1@
0S!
1A
0H
0I
#240000
0!
06
0@
#245000
1!
16
1@
1S!
0R!
1I
1J
0A
1H
0I
0J
1K
0M
0N
0K
1M
1N
#250000
0!
06
0@
#255000
1!
16
1@
0S!
1A
0H
1I
1J
1K
0M
0N
#260000
0!
06
0@
#265000
1!
16
1@
1S!
1R!
1Q!
0P!
1N
1P
0K
1M
0I
0J
0A
1H
1I
1K
0N
0P
0Q
1Q
#270000
0!
06
0@
#275000
1!
16
1@
0S!
1A
0H
0I
#280000
0!
06
0@
#285000
1!
16
1@
1S!
0R!
1I
1J
0A
1H
0I
0J
0K
1K
#290000
0!
06
0@
#295000
1!
16
1@
0S!
1A
0H
1I
1J
0K
#300000
0!
06
0@
#305000
1!
16
1@
1S!
1R!
0Q!
1K
0M
0I
0J
0A
1H
1I
0K
1M
1N
1P
0Q
0N
0P
1Q
#310000
0!
06
0@
#315000
1!
16
1@
0S!
1A
0H
0I
#320000
0!
06
0@
#325000
1!
16
1@
1S!
0R!
1I
1J
0A
1H
1O
0I
0J
1K
0M
1N
1P
0K
1M
0N
0P
0Q
1Q
#330000
0!
06
0@
#335000
1!
16
1@
0S!
1A
0H
0O
1I
1J
1K
0M
1N
1P
0Q
#340000
0!
06
0@
#345000
1!
16
1@
1S!
1R!
1Q!
1P!
0O!
1Q
0R
0N
0P
0K
1M
0I
0J
0A
1H
1I
1K
1N
0Q
1R
0S
1S
#350000
0!
06
0@
#355000
1!
16
1@
0S!
1A
0H
0I
#360000
0!
06
0@
#365000
1!
16
1@
1S!
0R!
1I
1J
0A
1H
0I
0J
0K
1K
#370000
0!
06
0@
#375000
1!
16
1@
0S!
1A
0H
1I
1J
0K
#380000
0!
06
0@
#385000
1!
16
1@
1S!
1R!
0Q!
1K
0M
0I
0J
0A
1H
1I
0K
1M
0N
1N
#390000
0!
06
0@
#395000
1!
16
1@
0S!
1A
0H
0I
#400000
0!
06
0@
#405000
1!
16
1@
1S!
0R!
1I
1J
0A
1H
0I
0J
1K
0M
0N
0K
1M
1N
#410000
0!
06
0@
#415000
1!
16
1@
0S!
1A
0H
1I
1J
1K
0M
0N
#420000
0!
06
0@
#425000
1!
16
1@
1S!
1R!
1Q!
0P!
1N
1P
0K
1M
0I
0J
0A
1H
1I
1K
0N
0P
1Q
0R
0S
0Q
1R
1S
#430000
0!
06
0@
#435000
1!
16
1@
0S!
1A
0H
0I
#440000
0!
06
0@
#445000
1!
16
1@
1S!
0R!
1I
1J
0A
1H
0I
0J
0K
1K
#450000
0!
06
0@
#455000
1!
16
1@
0S!
1A
0H
1I
1J
0K
#460000
0!
06
0@
#465000
1!
16
1@
1S!
1R!
0Q!
1K
0M
0I
0J
0A
1H
1I
0K
1M
1N
1P
1Q
0R
0N
0P
0Q
1R
0S
1S
#470000
0!
06
0@
#475000
1!
16
1@
0S!
1A
0H
0I
#480000
0!
06
0@
#485000
1!
16
1@
1S!
0R!
1I
1J
0A
1H
1O
0I
0J
1K
0M
1N
1P
0K
1M
0N
0P
1Q
0R
0S
0Q
1R
1S
#490000
0!
06
0@
#495000
1!
16
1@
0S!
1A
0H
0O
1I
1J
1K
0M
1N
1P
1Q
0R
0S
#500000
0!
06
0@
#505000
1!
16
1@
1S!
1R!
1Q!
1P!
1O!
0N!
1S
1T
0Q
1R
0N
0P
0K
1M
0I
0J
0A
1H
1I
1K
1N
1Q
0S
0T
0U
1U
#510000
0!
06
0@
#515000
1!
16
1@
0S!
1A
0H
0I
#520000
0!
06
0@
#525000
1!
16
1@
1S!
0R!
1I
1J
0A
1H
0I
0J
0K
1K
#530000
0!
06
0@
#535000
1!
16
1@
0S!
1A
0H
1I
1J
0K
#540000
0!
06
0@
#545000
1!
16
1@
1S!
1R!
0Q!
1K
0M
0I
0J
0A
1H
1I
0K
1M
0N
1N
#550000
0!
06
0@
#555000
1!
16
1@
0S!
1A
0H
0I
#560000
0!
06
0@
#565000
1!
16
1@
1S!
0R!
1I
1J
0A
1H
0I
0J
1K
0M
0N
0K
1M
1N
#570000
0!
06
0@
#575000
1!
16
1@
0S!
1A
0H
1I
1J
1K
0M
0N
#580000
0!
06
0@
#585000
1!
16
1@
1S!
1R!
1Q!
0P!
1N
1P
0K
1M
0I
0J
0A
1H
1I
1K
0N
0P
0Q
1Q
#590000
0!
06
0@
#595000
1!
16
1@
0S!
1A
0H
0I
#600000
0!
06
0@
#605000
1!
16
1@
1S!
0R!
1I
1J
0A
1H
0I
0J
0K
1K
#610000
0!
06
0@
#615000
1!
16
1@
0S!
1A
0H
1I
1J
0K
#620000
0!
06
0@
#625000
1!
16
1@
1S!
1R!
0Q!
1K
0M
0I
0J
0A
1H
1I
0K
1M
1N
1P
0Q
0N
0P
1Q
#630000
0!
06
0@
#635000
1!
16
1@
0S!
1A
0H
0I
#640000
0!
06
0@
#645000
1!
16
1@
1S!
0R!
1I
1J
0A
1H
1O
0I
0J
1K
0M
1N
1P
0K
1M
0N
0P
0Q
1Q
#650000
0!
06
0@
#655000
1!
16
1@
0S!
1A
0H
0O
1I
1J
1K
0M
1N
1P
0Q
#660000
0!
06
0@
#665000
1!
16
1@
1S!
1R!
1Q!
1P!
0O!
1Q
0R
0N
0P
0K
1M
0I
0J
0A
1H
1I
1K
1N
0Q
1R
1S
1T
0U
0S
0T
1U
#670000
0!
06
0@
#675000
1!
16
1@
0S!
1A
0H
0I
#680000
0!
06
0@
#685000
1!
16
1@
1S!
0R!
1I
1J
0A
1H
0I
0J
0K
1K
#690000
0!
06
0@
#695000
1!
16
1@
0S!
1A
0H
1I
1J
0K
#700000
0!
06
0@
#705000
1!
16
1@
1S!
1R!
0Q!
1K
0M
0I
0J
0A
1H
1I
0K
1M
0N
1N
#710000
0!
06
0@
#715000
1!
16
1@
0S!
1A
0H
0I
#720000
0!
06
0@
#725000
1!
16
1@
1S!
0R!
1I
1J
0A
1H
0I
0J
1K
0M
0N
0K
1M
1N
#730000
0!
06
0@
#735000
1!
16
1@
0S!
1A
0H
1I
1J
1K
0M
0N
#740000
0!
06
0@
#745000
1!
16
1@
1S!
1R!
1Q!
0P!
1N
1P
0K
1M
0I
0J
0A
1H
1I
1K
0N
0P
1Q
0R
1S
1T
0Q
1R
0S
0T
0U
1U
#750000
0!
06
0@
#755000
1!
16
1@
0S!
1A
0H
0I
#760000
0!
06
0@
#765000
1!
16
1@
1S!
0R!
1I
1J
0A
1H
0I
0J
0K
1K
#770000
0!
06
0@
#775000
1!
16
1@
0S!
1A
0H
1I
1J
0K
#780000
0!
06
0@
#785000
1!
16
1@
1S!
1R!
0Q!
1K
0M
0I
0J
0A
1H
1I
0K
1M
1N
1P
1Q
0R
0N
0P
0Q
1R
1S
1T
0U
0S
0T
1U
#790000
0!
06
0@
#795000
1!
16
1@
0S!
1A
0H
0I
#800000
0!
06
0@
#805000
1!
16
1@
1S!
0R!
1I
1J
0A
1H
1O
0I
0J
1K
0M
1N
1P
0K
1M
0N
0P
1Q
0R
1S
1T
0Q
1R
0S
0T
0U
1U
#810000
0!
06
0@
#815000
1!
16
1@
0S!
1A
0H
0O
1I
1J
1K
0M
1N
1P
1Q
0R
1S
1T
0U
#820000
0!
06
0@
#825000
1!
16
1@
1S!
1R!
1Q!
1P!
1O!
1N!
0M!
1U
0V
0S
0T
0Q
1R
0N
0P
0K
1M
0I
0J
0A
1H
1I
1K
1N
1Q
1S
0U
1V
0W
1W
#830000
0!
06
0@
#835000
1!
16
1@
0S!
1A
0H
0I
#840000
0!
06
0@
#845000
1!
16
1@
1S!
0R!
1I
1J
0A
1H
0I
0J
0K
1K
#850000
0!
06
0@
#855000
1!
16
1@
0S!
1A
0H
1I
1J
0K
#860000
0!
06
0@
#865000
1!
16
1@
1S!
1R!
0Q!
1K
0M
0I
0J
0A
1H
1I
0K
1M
0N
1N
#870000
0!
06
0@
#875000
1!
16
1@
0S!
1A
0H
0I
#880000
0!
06
0@
#885000
1!
16
1@
1S!
0R!
1I
1J
0A
1H
0I
0J
1K
0M
0N
0K
1M
1N
#890000
0!
06
0@
#895000
1!
16
1@
0S!
1A
0H
1I
1J
1K
0M
0N
#900000
0!
06
0@
#905000
1!
16
1@
1S!
1R!
1Q!
0P!
1N
1P
0K
1M
0I
0J
0A
1H
1I
1K
0N
0P
0Q
1Q
#910000
0!
06
0@
#915000
1!
16
1@
0S!
1A
0H
0I
#920000
0!
06
0@
#925000
1!
16
1@
1S!
0R!
1I
1J
0A
1H
0I
0J
0K
1K
#930000
0!
06
0@
#935000
1!
16
1@
0S!
1A
0H
1I
1J
0K
#940000
0!
06
0@
#945000
1!
16
1@
1S!
1R!
0Q!
1K
0M
0I
0J
0A
1H
1I
0K
1M
1N
1P
0Q
0N
0P
1Q
#950000
0!
06
0@
#955000
1!
16
1@
0S!
1A
0H
0I
#960000
0!
06
0@
#965000
1!
16
1@
1S!
0R!
1I
1J
0A
1H
1O
0I
0J
1K
0M
1N
1P
0K
1M
0N
0P
0Q
1Q
#970000
0!
06
0@
#975000
1!
16
1@
0S!
1A
0H
0O
1I
1J
1K
0M
1N
1P
0Q
#980000
0!
06
0@
#985000
1!
16
1@
1S!
1R!
1Q!
1P!
0O!
1Q
0R
0N
0P
0K
1M
0I
0J
0A
1H
1I
1K
1N
0Q
1R
0S
1S
#990000
0!
06
0@
#995000
1!
16
1@
0S!
1A
0H
0I
